resources/examples/Micro/Pic/16F87x/16F876_I2C-RAM/pic_i2c-hw_LAnalizer-29.vcd
$timescale 1000ps $end

$var wire 1 * SDA $end
$var wire 1 " SCL $end
$var wire 1 # Tx $end

$enddefinitions $end

$dumpvars
1*
1"
1#
$end

#10758364 1# 1" 1*
#23084164 0#
#23188164 1#
#23258364 1# 1" 1*
#23292164 0#
#23396164 1#
#23604164 0#
#24020164 1#
#24124164 0#
#24332164 1#
#24436164 0#
#24540164 1#
#24644164 0#
#25060164 1#
#25164164 0#
#25268164 1#
#25372164 0#
#25476164 1#
#25684164 0#
#26100164 1#
#26204164 0#
#26412164 1#
#26516164 0#
#26620164 1#
#26724164 0#
#27140164 1#
#27244164 0#
#27660164 1#
#27764164 0#
#27972164 1#
#28076164 0#
#28180164 1#
#28284164 0#
#28388164 1#
#28700164 0#
#28804164 1#
#28908164 0#
#29012164 1#
#29116164 0#
#29220164 1#
#29324164 0#
#29948164 1#
#30052164 0#
#30260164 1#
#30364164 0#
#30468164 1#
#30572164 0#
#30780164 1#
#30884164 0#
#31092164 1#
#31196164 0#
#31300164 1#
#31404164 0#
#31612164 1#
#31716164 0#
#31924164 1#
#32132164 0#
#32340164 1#
#32444164 0#
#32548164 1#
#32756164 0#
#33172164 1#
#33276164 0#
#33380164 1#
#33484164 0#
#34108164 1#
#34212164 0#
#34420164 1#
#34524164 0#
#34628164 1#
#34732164 0#
#34836164 1#
#35044164 0#
#35252164 1#
#35356164 0#
#35460164 1#
#35564164 0#
#35668164 1#
#35758364 1# 1" 1*
#36084164 0#
#36188164 1#
#36396164 0#
#36500164 1#
#36604164 0#
#36916164 1#
#37020164 0#
#37228164 1#
#37436164 0#
#37540164 1#
#37644164 0#
#37748164 1#
#37852164 0#
#37956164 1#
#38060164 0#
#38268164 1#
#38476164 0#
#38580164 1#
#38684164 0#
#38788164 1#
#38892164 0#
#38996164 1#
#39204164 0#
#39620164 1#
#39724164 0#
#39932164 1#
#40036164 0#
#40140164 1#
#40244164 0#
#40660164 1#
#40764164 0#
#40868164 1#
#40972164 0#
#41076164 1#
#41284164 0#
#41700164 1#
#41804164 0#
#42012164 1#
#42116164 0#
#42220164 1#
#42324164 0#
#42740164 1#
#42844164 0#
#43468164 1#
#43572164 0#
#43780164 1#
#43884164 0#
#44508164 1#
#44612164 0#
#44820164 1#
#44924164 0#
#45028164 1#
#45340164 0#
#45444164 1#
#45548164 0#
#45652164 1#
#45756164 0#
#45860164 1#
#45964164 0#
#46172164 1#
#46276164 0#
#46484164 1#
#46796164 0#
#46900164 1#
#47004164 0#
#47108164 1#
#47212164 0#
#47420164 1#
#47524164 0#
#47628164 1#
#47836164 0#
#47940164 1#
#48044164 0#
#48258364 0# 1" 1*
#48356164 1#
#48460164 0#
#48564164 1#
#48876164 0#
#48980164 1#
#49084164 0#
#49188164 1#
#49292164 0#
#49396164 1#
#49500164 0#
#49708164 1#
#49916164 0#
#50020164 1#
#50124164 0#
#50748164 1#
#50852164 0#
#51060164 1#
#51164164 0#
#51476164 1#
#51580164 0#
#51684164 1#
#51996164 0#
#52100164 1#
#52204164 0#
#52308164 1#
#52724164 0#
#52828164 1#
#53036164 0#
#53140164 1#
#53244164 0#
#53868164 1#
#53972164 0#
#54180164 1#
#54284164 0#
#54388164 1#
#54492164 0#
#54596164 1#
#54700164 0#
#55012164 1#
#55116164 0#
#55220164 1#
#55324164 0#
#55428164 1#
#55532164 0#
#55636164 1#
#55740164 0#
#56052164 1#
#56156164 0#
#56260164 1#
#56364164 0#
#56884164 1#
#56988164 0#
#57092164 1#
#57196164 0#
#57300164 1#
#57404164 0#
#57612164 1#
#57716164 0#
#57924164 1#
#58028164 0#
#58132164 1#
#58236164 0#
#58340164 1#
#58444164 0#
#58548164 1#
#58964164 0#
#59172164 1#
#59276164 0#
#59380164 1#
#59484164 0#
#59588164 1#
#59692164 0#
#59796164 1#
#60004164 0#
#60212164 1#
#60316164 0#
#60420164 1#
#60524164 0#
#60628164 1#
#60732164 0#
#60758364 0# 1" 1*
#60836164 1#
#61044164 0#
#61460164 1#
#61564164 0#
#61772164 1#
#61876164 0#
#61980164 1#
#62084164 0#
#62500164 1#
#64037564 0#
#64141564 1#
#64245564 0#
#64557564 1#
#64765564 0#
#64973564 1#
#65077564 0#
#65701564 1#
#65805564 0#
#66013564 1#
#68563364 0#
#68771364 1#
#68875364 0#
#69083364 1#
#69291364 0#
#69499364 1#
#69603364 0#
#70227364 1#
#70331364 0#
#70539364 1#
#73089164 0#
#73193164 1#
#73258364 1# 1" 1*
#73401164 0#
#73609164 1#
#73817164 0#
#74025164 1#
#74129164 0#
#74753164 1#
#74857164 0#
#75065164 1#
#77614964 0#
#77926964 1#
#78030964 0#
#78134964 1#
#78342964 0#
#78550964 1#
#78654964 0#
#79278964 1#
#79382964 0#
#79590964 1#
#82140764 0#
#82244764 1#
#82348764 0#
#82452764 1#
#82556764 0#
#82660764 1#
#82868764 0#
#83076764 1#
#83180764 0#
#83804764 1#
#83908764 0#
#84116764 1#
#85758364 1# 1" 1*
#86666564 0#
#86874564 1#
#87082564 0#
#87186564 1#
#87394564 0#
#87602564 1#
#87706564 0#
#88330564 1#
#88434564 0#
#88642564 1#
#91192364 0#
#91296364 1#
#91608364 0#
#91712364 1#
#91920364 0#
#92128364 1#
#92232364 0#
#92856364 1#
#92960364 0#
#93168364 1#
#95718164 0#
#96134164 1#
#96446164 0#
#96654164 1#
#96758164 0#
#97382164 1#
#97486164 0#
#97694164 1#
#98258364 1# 1" 1*
#100243964 0#
#100347964 1#
#100451964 0#
#100659964 1#
#100971964 0#
#101179964 1#
#101283964 0#
#101907964 1#
#102011964 0#
#102219964 1#
#104794964 0#
#104898964 1#
#105002964 0#
#105314964 1#
#105522964 0#
#105730964 1#
#105834964 0#
#106354964 1#
#106562964 0#
#106770964 1#
#106874964 0#
#107498964 1#
#107602964 0#
#107810964 1#
#107914964 0#
#108018964 1#
#108122964 0#
#108226964 1#
#108434964 0#
#108850964 1#
#108954964 0#
#109162964 1#
#109266964 0#
#109370964 1#
#109474964 0#
#109890964 1#
#109994964 0#
#110098964 1#
#110202964 0#
#110306964 1#
#110514964 0#
#110758364 0# 1" 1*
#110930964 1#
#111034964 0#
#111242964 1#
#111346964 0#
#111450964 1#
#111554964 0#
#111970964 1#
#112074964 0#
#112698964 1#
#112802964 0#
#113010964 1#
#113114964 0#
#113738964 1#
#113842964 0#
#114050964 1#
#114154964 0#
#114362964 1#
#114466964 0#
#114674964 1#
#114778964 0#
#114882964 1#
#114986964 0#
#115090964 1#
#115194964 0#
#115298964 1#
#115402964 0#
#115506964 1#
#115610964 0#
#115818964 1#
#116026964 0#
#116130964 1#
#116234964 0#
#116338964 1#
#116442964 0#
#116858964 1#
#117066964 0#
#117170964 1#
#117274964 0#
#117586964 1#
#117690964 0#
#117898964 1#
#118106964 0#
#118210964 1#
#118314964 0#
#118938964 1#
#119042964 0#
#119250964 1#
#119354964 0#
#119562964 1#
#119770964 0#
#119978964 1#
#120186964 0#
#120290964 1#
#120394964 0#
#120602964 1#
#120706964 0#
#120914964 1#
#121226964 0#
#121330964 1#
#121434964 0#
#121538964 1#
#121954964 0#
#122058964 1#
#122266964 0#
#122370964 1#
#122474964 0#
#122578964 1#
#122682964 0#
#122786964 1#
#122994964 0#
#123098964 1#
#123258364 1# 1" 1*
#123306964 0#
#123410964 1#
#123514964 0#
#124138964 1#
#124242964 0#
#124450964 1#
#124554964 0#
#124658964 1#
#124762964 0#
#124866964 1#
#124970964 0#
#125282964 1#
#125386964 0#
#125490964 1#
#125594964 0#
#125698964 1#
#125802964 0#
#125906964 1#
#126010964 0#
#126322964 1#
#126426964 0#
#126530964 1#
#126634964 0#
#127154964 1#
#127258964 0#
#127362964 1#
#127466964 0#
#127570964 1#
#127674964 0#
#127882964 1#
#127986964 0#
#128194964 1#
#128298964 0#
#128402964 1#
#128506964 0#
#128610964 1#
#128714964 0#
#128818964 1#
#129234964 0#
#129442964 1#
#129546964 0#
#129650964 1#
#129754964 0#
#129858964 1#
#129962964 0#
#130066964 1#
#130274964 0#
#130482964 1#
#130586964 0#
#130690964 1#
#130794964 0#
#130898964 1#
#131002964 0#
#131106964 1#
#131314964 0#
#131730964 1#
#131834964 0#
#132042964 1#
#132146964 0#
#132250964 1#
#132354964 0#
#132770964 1#
#135758364 1# 1" 1*
#139103277 1# 1" 1*
